Introduction to farspkg Package
…
We can see that FARS data contain information about the location (STATE, COUNTY, CITY, LONGITUD, LATITUDE) and time (MONTH, DAY, YEAR) the fatal injuries occured.

III. Read in multiple years of FARS data

Function fars_read_year() combined make_filename() and fars_read(), and can read FARS data in multiple years, and return dataframe seperate by the given year. If the data corresponds to the given year does not exist, a WARNING will return. For more information, type ?fars_read_year in the R console.

fars_read_years(years = c(2013, 2014))
#> [[1]]
#> # A tibble: 30,202 x 2
#>    MONTH  year
#>    <dbl> <dbl>
#>  1     1  2013
#>  2     1  2013
#>  3     1  2013
#>  4     1  2013
#>  5     1  2013
#>  6     1  2013
#>  7     1  2013
#>  8     1  2013
#>  9     1  2013
#> 10     1  2013
#> # … with 30,192 more rows
#> 
#> [[2]]
#> # A tibble: 30,056 x 2
#>    MONTH  year
#>    <dbl> <dbl>
#>  1     1  2014
#>  2     1  2014
#>  3     1  2014
#>  4     1  2014
#>  5     1  2014
#>  6     1  2014
#>  7     1  2014
#>  8     1  2014
#>  9     1  2014
#> 10     1  2014
#> # … with 30,046 more rows
…
